,Events_Name,Events_Date
0,New Year's Day,2022-01-01
5,Valentine's Day,2022-02-14
11,St. Patrick's Day,2022-03-17
14,Easter,2022-04-17
18,Mother's Day,2022-05-08
24,Father's Day,2022-06-19
26,Parents' Day,2022-07-24
27,Labor Day,2022-09-05
29,"Patriot Day or 9, 11th",2022-09-11
36,Halloween,2022-10-31
40,Thanksgiving,2022-11-24
45,New Year's Eve,2022-12-31
